{
    "total_time": 6.115,
    "total_count": 14,
    "success_count": 14,
    "failed_count": 0,
    "skipped_count": 0,
    "error_count": 0,
    "test_suites": [
        {
            "name": "unit-tests",
            "total_time": 6.115,
            "total_count": 14,
            "success_count": 14,
            "failed_count": 0,
            "skipped_count": 0,
            "error_count": 0,
            "suite_error": null,
            "test_cases": [
                {
                    "status": "success",
                    "name": "test_user_signup_page_submission_works",
                    "classname": "django1.tests.test_views.TestPage",
                    "file": "django1/tests/test_views.py",
                    "execution_time": 1.605,
                    "system_output": null,
                    "stack_trace": null,
                    "recent_failures": null
                },
                {
                    "status": "success",
                    "name": "test_items_filter_by_owners",
                    "classname": "django1.tests.test_views.TestPage",
                    "file": "django1/tests/test_views.py",
                    "execution_time": 1.416,
                    "system_output": null,
                    "stack_trace": null,
                    "recent_failures": null
                },
                {
                    "status": "success",
                    "name": "test_items_page_returns_active",
                    "classname": "django1.tests.test_views.TestPage",
                    "file": "django1/tests/test_views.py",
                    "execution_time": 1.325,
                    "system_output": null,
                    "stack_trace": null,
                    "recent_failures": null
                },
                {
                    "status": "success",
                    "name": "test_items_filter_by_owners",
                    "classname": "django1.tests.test_views.TestPage",
                    "file": "django1/tests/test_views.py",
                    "execution_time": 0.485,
                    "system_output": null,
                    "stack_trace": null,
                    "recent_failures": null
                },
                {
                    "status": "success",
                    "name": "test_user_signup_page_submission_works",
                    "classname": "django1.tests.test_views.TestPage",
                    "file": "django1/tests/test_views.py",
                    "execution_time": 0.482,
                    "system_output": null,
                    "stack_trace": null,
                    "recent_failures": null
                },
                {
                    "status": "success",
                    "name": "test_items_page_returns_active",
                    "classname": "django1.tests.test_views.TestPage",
                    "file": "django1/tests/test_views.py",
                    "execution_time": 0.481,
                    "system_output": null,
                    "stack_trace": null,
                    "recent_failures": null
                },
                {
                    "status": "success",
                    "name": "test_valid_signup_form_sends_email",
                    "classname": "django1.tests.test_forms.TestForm",
                    "file": "django1/tests/test_forms.py",
                    "execution_time": 0.167,
                    "system_output": null,
                    "stack_trace": null,
                    "recent_failures": null
                },
                {
                    "status": "success",
                    "name": "test_create_item_works",
                    "classname": "django1.tests.tests_models.TestModel",
                    "file": "django1/tests/tests_models.py",
                    "execution_time": 0.062,
                    "system_output": null,
                    "stack_trace": null,
                    "recent_failures": null
                },
                {
                    "status": "success",
                    "name": "test_home_page_works",
                    "classname": "django1.tests.test_views.TestPage",
                    "file": "django1/tests/test_views.py",
                    "execution_time": 0.025,
                    "system_output": null,
                    "stack_trace": null,
                    "recent_failures": null
                },
                {
                    "status": "success",
                    "name": "test_create_item_works",
                    "classname": "django1.tests.test_views.TestModel",
                    "file": "django1/tests/test_views.py",
                    "execution_time": 0.023,
                    "system_output": null,
                    "stack_trace": null,
                    "recent_failures": null
                },
                {
                    "status": "success",
                    "name": "test_valid_signup_form_sends_email",
                    "classname": "django1.tests.test_views.TestForm",
                    "file": "django1/tests/test_views.py",
                    "execution_time": 0.016,
                    "system_output": null,
                    "stack_trace": null,
                    "recent_failures": null
                },
                {
                    "status": "success",
                    "name": "test_user_signup_page_loads_correctly",
                    "classname": "django1.tests.test_views.TestPage",
                    "file": "django1/tests/test_views.py",
                    "execution_time": 0.013,
                    "system_output": null,
                    "stack_trace": null,
                    "recent_failures": null
                },
                {
                    "status": "success",
                    "name": "test_home_page_works",
                    "classname": "django1.tests.test_views.TestPage",
                    "file": "django1/tests/test_views.py",
                    "execution_time": 0.01,
                    "system_output": null,
                    "stack_trace": null,
                    "recent_failures": null
                },
                {
                    "status": "success",
                    "name": "test_user_signup_page_loads_correctly",
                    "classname": "django1.tests.test_views.TestPage",
                    "file": "django1/tests/test_views.py",
                    "execution_time": 0.005,
                    "system_output": null,
                    "stack_trace": null,
                    "recent_failures": null
                }
            ]
        }
    ]
}