{
    "DATABASE_NAME": "appdev",
    "DATABASE_USER": "postgres",
    "DATABASE_PASSWORD": "posgres",
    "DJANGO_SECRET_KEY": "django-insecure-ao6^0096ia#+j8%c87*0tbbx(jalmx5kliitb=to000tco9u(#",
    "EMAIL_HOST" : "smtp.domain.com",
    "EMAIL_PORT" : "587",
    "EMAIL_HOST_USER" : "username",
    "EMAIL_HOST_PASSWORD" : "password"
}